/AscendWork/gabramov/1_512_int64.bin
100
0


/AscendWork/gabramov/1_512_int64.bin
100
0


/AscendWork/gabramov/1_512_int64.bin
100
0


/AscendWork/onnx/om_models/bert_base_batch_1_sim.om
1
2
0 1 2
0 0 0
